^C:\USERS\GHETT\DESKTOP\VVID\REPOSITORY\VERYPROJECT\VERYPROJECT_TEST\DEBUG\STDAFX.OBJ|C:\USERS\GHETT\DESKTOP\VVID\REPOSITORY\VERYPROJECT\VERYPROJECT_TEST\DEBUG\UNITTEST1.OBJ
C:\USERS\GHETT\DESKTOP\VVID\REPOSITORY\VERYPROJECT\DEBUG\VERYPROJECT_TEST.DLL
C:\USERS\GHETT\DESKTOP\VVID\REPOSITORY\VERYPROJECT\DEBUG\VERYPROJECT_TEST.ILK
C:\USERS\GHETT\DESKTOP\VVID\REPOSITORY\VERYPROJECT\DEBUG\VERYPROJECT_TEST.PDB
