#Command: "C:\Program Files (x86)\Microsoft Visual Studio\2017\Community\VC\Tools\MSVC\14.13.26128\bin\HostX86\x86\link.exe" /ERRORREPORT:PROMPT @C:\Users\ghett\AppData\Local\Temp\tmpd172551cc0714faeb7e6acee61581d4c.rsp /incremental /nologo /fullbuild
^C:\USERS\GHETT\DESKTOP\VVID\REPOSITORY\VERYPROJECT\VERYPROJECT_TEST\DEBUG\STDAFX.OBJ|C:\USERS\GHETT\DESKTOP\VVID\REPOSITORY\VERYPROJECT\VERYPROJECT_TEST\DEBUG\UNITTEST1.OBJ
C:\USERS\GHETT\APPDATA\LOCAL\TEMP\LNK{FE1066E1-D451-4626-8B5B-711210195D2D}.TMP
