^C:\USERS\GHETT\DESKTOP\VVID\REPOSITORY\VERYPROJECT\VERYPROJECT\X64\RELEASE\STDAFX.OBJ|C:\USERS\GHETT\DESKTOP\VVID\REPOSITORY\VERYPROJECT\VERYPROJECT\X64\RELEASE\VERYPROJECT.OBJ
C:\USERS\GHETT\DESKTOP\VVID\REPOSITORY\VERYPROJECT\X64\RELEASE\VERYPROJECT.EXE
C:\USERS\GHETT\DESKTOP\VVID\REPOSITORY\VERYPROJECT\X64\RELEASE\VERYPROJECT.PDB
