^C:\USERS\GHETT\DESKTOP\VVID\REPOSITORY\VERYPROJECT\VERYPROJECT\X64\DEBUG\STDAFX.OBJ|C:\USERS\GHETT\DESKTOP\VVID\REPOSITORY\VERYPROJECT\VERYPROJECT\X64\DEBUG\VERYPROJECT.OBJ
C:\USERS\GHETT\DESKTOP\VVID\REPOSITORY\VERYPROJECT\X64\DEBUG\VERYPROJECT.ILK
C:\USERS\GHETT\DESKTOP\VVID\REPOSITORY\VERYPROJECT\X64\DEBUG\VERYPROJECT.EXE
C:\USERS\GHETT\DESKTOP\VVID\REPOSITORY\VERYPROJECT\X64\DEBUG\VERYPROJECT.PDB
