#Command:  
C:\USERS\GHETT\APPDATA\LOCAL\MICROSOFT\VSAPPLICATIONINSIGHTS\VSTELAIF-312CBD79-9DBB-4C48-A7DA-3CC2A931CB70\20180327134549_30C791C648474CE0B50325FE9A71A147.TRN
C:\USERS\GHETT\APPDATA\LOCAL\MICROSOFT\VSAPPLICATIONINSIGHTS\VSTELAIF-312CBD79-9DBB-4C48-A7DA-3CC2A931CB70\20180327151719_2FFB2953DF1844ACB19AD62346AFE8F0.TRN
C:\USERS\GHETT\APPDATA\LOCAL\MICROSOFT\VSAPPLICATIONINSIGHTS\VSTELAIF-312CBD79-9DBB-4C48-A7DA-3CC2A931CB70\20180327151719_348A5B1922364952AC1523B313CB2CF9.TRN
