^C:\USERS\GHETT\DESKTOP\VVID\REPOSITORY\VERYPROJECT\VERYPROJECT_TEST\STDAFX.CPP
C:\USERS\GHETT\DESKTOP\VVID\REPOSITORY\VERYPROJECT\VERYPROJECT_TEST\X64\RELEASE\VERYPROJECT_TEST.PCH
C:\USERS\GHETT\DESKTOP\VVID\REPOSITORY\VERYPROJECT\VERYPROJECT_TEST\X64\RELEASE\VC141.PDB
C:\USERS\GHETT\DESKTOP\VVID\REPOSITORY\VERYPROJECT\VERYPROJECT_TEST\X64\RELEASE\STDAFX.OBJ
^C:\USERS\GHETT\DESKTOP\VVID\REPOSITORY\VERYPROJECT\VERYPROJECT_TEST\UNITTEST1.CPP
C:\USERS\GHETT\DESKTOP\VVID\REPOSITORY\VERYPROJECT\VERYPROJECT_TEST\X64\RELEASE\VC141.PDB
C:\USERS\GHETT\DESKTOP\VVID\REPOSITORY\VERYPROJECT\VERYPROJECT_TEST\X64\RELEASE\UNITTEST1.OBJ
