^C:\USERS\GHETT\DESKTOP\VVID\REPOSITORY\VERYPROJECT\VERYPROJECT_TEST\X64\RELEASE\STDAFX.OBJ|C:\USERS\GHETT\DESKTOP\VVID\REPOSITORY\VERYPROJECT\VERYPROJECT_TEST\X64\RELEASE\UNITTEST1.OBJ
C:\USERS\GHETT\DESKTOP\VVID\REPOSITORY\VERYPROJECT\X64\RELEASE\VERYPROJECT_TEST.DLL
C:\USERS\GHETT\DESKTOP\VVID\REPOSITORY\VERYPROJECT\X64\RELEASE\VERYPROJECT_TEST.PDB
